{
	"mysql": "jdbc:mysql://{host}:{port}/{databaseName}",
    "postgresql": "jdbc:postgresql://{host}:{port}/{databaseName}",
    "sqlserver": "jdbc:sqlserver://{host}:{port};databaseName={databaseName}",
    "oracle":"jdbc:oracle:thin:@{host}:{port}/{databaseName}"
}